{
	"additionalNodes": [],
	"additionalParameters": {
		"root": {
			"height": 88,
			"width": 180
		}
	},
	"inputs": [],
	"outputs": [],
	"properties": {
		"9xQpUrkLkmzPfi0qC7JRdF7GKbLzlu57": {
			"height": 92,
			"title": "store",
			"width": 131,
			"x": 454,
			"y": -175
		},
		"F2ucc5dFEMuB9zElbW3ySUWAJGeizakC": {
			"height": 94,
			"title": "store",
			"width": 248,
			"x": 452,
			"y": -82
		},
		"dpxYB1UsZGCKeEQ6Ju1rtE5nYbFbpTIw": {
			"height": 90,
			"title": "Common.relativeMove",
			"width": 225,
			"x": 398,
			"y": 113
		},
		"hmnPyatVkBLxaM2syZI9wvujVbQcPdyi": {
			"height": 60,
			"title": "sequence",
			"width": 143,
			"x": 237,
			"y": 11
		}
	},
	"roles": [ {
		"categories": [],
		"name": "Role 0"
	} ],
	"root": {
		"children": [ {
			"children": [],
			"id": "9xQpUrkLkmzPfi0qC7JRdF7GKbLzlu57",
			"nodeType": "luaCommand",
			"parameters": [ {
				"name": "var",
				"value": "x"
			}, {
				"name": "value",
				"value": "20"
			}, {
				"name": "scriptName",
				"value": "store"
			} ],
			"scriptName": "store"
		}, {
			"children": [],
			"id": "F2ucc5dFEMuB9zElbW3ySUWAJGeizakC",
			"nodeType": "luaCommand",
			"parameters": [ {
				"name": "var",
				"value": "x"
			}, {
				"name": "value",
				"value": "math.random(2000)-1000"
			}, {
				"name": "scriptName",
				"value": "store"
			} ],
			"scriptName": "store"
		}, {
			"children": [],
			"id": "dpxYB1UsZGCKeEQ6Ju1rtE5nYbFbpTIw",
			"nodeType": "luaCommand",
			"parameters": [ {
				"name": "dist",
				"value": "{x = x, z = 0}"
			}, {
				"name": "fight",
				"value": "false"
			}, {
				"name": "scriptName",
				"value": "Common.relativeMove"
			} ],
			"scriptName": "Common.relativeMove"
		} ],
		"id": "hmnPyatVkBLxaM2syZI9wvujVbQcPdyi",
		"nodeType": "sequence",
		"parameters": []
	}
}